{
  "totalItems": 218574,
  "totalPages": 10929,
  "currentPage": 1,
  "incidences": [
    {
      "incidenceId": "215362",
      "sourceId": "1",
      "incidenceType": "Seguridad vial",
      "autonomousRegion": "Euskadi",
      "province": "BIZKAIA",
      "carRegistration": "BI",
      "cause": "Caída de objetos",
      "cityTown": "Basauri",
      "startDate": "2023-12-29T15:12:27",
      "incidenceLevel": "Amarillo",
      "road": "A-8",
      "pkStart": "110.0",
      "pkEnd": "110.0",
      "direction": "CANTABRIA",
      "latitude": "43.23132",
      "longitude": "-2.87165"
    },
    {
      "incidenceId": "215361",
      "sourceId": "1",
      "incidenceType": "Seguridad vial",
      "autonomousRegion": "Euskadi",
      "province": "ARABA",
      "carRegistration": "VI",
      "cause": "Avería",
      "cityTown": "Zigoitia",
      "startDate": "2023-12-29T12:31:07",
      "incidenceLevel": "Blanco",
      "road": "N-622",
      "pkStart": "15.0",
      "pkEnd": "15.0",
      "direction": "VITORIA-GASTEIZ",
      "latitude": "42.94205",
      "longitude": "-2.77449"
    },
    {
      "incidenceId": "215360",
      "sourceId": "1",
      "incidenceType": "Seguridad vial",
      "autonomousRegion": "Euskadi",
      "province": "BIZKAIA",
      "carRegistration": "BI",
      "cause": "Avería",
      "cityTown": "Erandio",
      "startDate": "2023-12-29T12:34:44",
      "incidenceLevel": "Blanco",
      "road": "BI-735",
      "pkStart": "11.0",
      "pkEnd": "11.0",
      "direction": "ASUA",
      "latitude": "43.30397",
      "longitude": "-2.95059"
    },
    {
      "incidenceId": "215359",
      "sourceId": "1",
      "incidenceType": "Seguridad vial",
      "autonomousRegion": "Euskadi",
      "province": "BIZKAIA",
      "carRegistration": "BI",
      "cause": "Avería",
      "cityTown": "Bilbao",
      "startDate": "2023-12-29T10:34:17",
      "incidenceLevel": "Blanco",
      "road": "AP-68",
      "pkStart": "1.0",
      "pkEnd": "1.0",
      "direction": "BILBAO",
      "latitude": "43.22694",
      "longitude": "-2.91548"
    },
    {
      "incidenceId": "215358",
      "sourceId": "1",
      "incidenceType": "Seguridad vial",
      "autonomousRegion": "Euskadi",
      "province": "GIPUZKOA",
      "carRegistration": "SS",
      "cause": "Caída de objetos",
      "cityTown": "Oñati",
      "startDate": "2023-12-29T10:55:09",
      "incidenceLevel": "Blanco",
      "road": "GI-2630",
      "pkStart": "18.0",
      "pkEnd": "18.0",
      "direction": "BERGARA",
      "latitude": "43.04108",
      "longitude": "-2.42166"
    },
    {
      "incidenceId": "215357",
      "sourceId": "1",
      "incidenceType": "Obras",
      "autonomousRegion": "Euskadi",
      "province": "GIPUZKOA",
      "carRegistration": "SS",
      "cause": "Obras",
      "cityTown": "Idiazabal",
      "startDate": "2023-12-29T08:05:11",
      "incidenceLevel": "Blanco",
      "road": "N-1",
      "pkStart": "411.0",
      "pkEnd": "412.0",
      "direction": "IRÚN",
      "latitude": "42.98433",
      "longitude": "-2.238316"
    },
    {
      "incidenceId": "215356",
      "sourceId": "1",
      "incidenceType": "Seguridad vial",
      "autonomousRegion": "Euskadi",
      "province": "BIZKAIA",
      "carRegistration": "BI",
      "cause": "Avería",
      "cityTown": "Bilbao",
      "startDate": "2023-12-29T08:06:44",
      "incidenceLevel": "Blanco",
      "road": "AP-68",
      "pkStart": "2.0",
      "pkEnd": "2.0",
      "direction": "ZARAGOZA",
      "latitude": "43.21948",
      "longitude": "-2.909877"
    },
    {
      "incidenceId": "215355",
      "sourceId": "1",
      "incidenceType": "Accidente",
      "autonomousRegion": "Euskadi",
      "province": "GIPUZKOA",
      "carRegistration": "SS",
      "cause": "Alcance",
      "cityTown": "Bergara",
      "startDate": "2023-12-29T08:46:48",
      "incidenceLevel": "Amarillo",
      "road": "AP-1",
      "pkStart": "137.0",
      "pkEnd": "137.0",
      "direction": "Madrid",
      "latitude": "43.12286",
      "longitude": "-2.42857"
    },
    {
      "incidenceId": "215354",
      "sourceId": "1",
      "incidenceType": "Seguridad vial",
      "autonomousRegion": "Euskadi",
      "province": "BIZKAIA",
      "carRegistration": "BI",
      "cause": "Avería",
      "cityTown": "Markina-Xemein",
      "startDate": "2023-12-29T07:33:08",
      "incidenceLevel": "Blanco",
      "road": "BI-633",
      "pkStart": "50.0",
      "pkEnd": "50.0",
      "direction": "ONDARROA (POR TRABAKUA)",
      "latitude": "43.28202",
      "longitude": "-2.49587"
    },
    {
      "incidenceId": "215353",
      "sourceId": "1",
      "incidenceType": "Vialidad invernal tramos",
      "autonomousRegion": "Euskadi",
      "province": "Alava-Araba",
      "carRegistration": "VI",
      "cause": "Desconocida",
      "startDate": "2023-12-29T06:55:17",
      "road": "N-124",
      "pkStart": "7.0",
      "pkEnd": "14.0",
      "direction": "NO DISPONIBLE",
      "latitude": "0.0",
      "longitude": "0.0"
    },
    {
      "incidenceId": "215352",
      "sourceId": "1",
      "incidenceType": "Vialidad invernal tramos",
      "autonomousRegion": "Euskadi",
      "province": "Gipuzkoa",
      "carRegistration": "SS",
      "cause": "Desconocida",
      "startDate": "2023-12-29T06:55:17",
      "road": "AP-1 ",
      "pkStart": "0.0",
      "pkEnd": "12.0",
      "direction": "NO DISPONIBLE",
      "latitude": "0.0",
      "longitude": "0.0"
    },
    {
      "incidenceId": "215351",
      "sourceId": "1",
      "incidenceType": "Vialidad invernal tramos",
      "autonomousRegion": "Euskadi",
      "province": "Gipuzkoa",
      "carRegistration": "SS",
      "cause": "Desconocida",
      "startDate": "2023-12-29T06:55:17",
      "road": "AP-1 ",
      "pkStart": "0.0",
      "pkEnd": "16.5",
      "direction": "NO DISPONIBLE",
      "latitude": "0.0",
      "longitude": "0.0"
    },
    {
      "incidenceId": "215350",
      "sourceId": "1",
      "incidenceType": "Vialidad invernal tramos",
      "autonomousRegion": "Euskadi",
      "province": "Alava-Araba",
      "carRegistration": "VI",
      "cause": "Desconocida",
      "startDate": "2023-12-29T06:55:17",
      "road": "AP-1",
      "pkStart": "77.3",
      "pkEnd": "83.1",
      "direction": "BURGOS",
      "latitude": "0.0",
      "longitude": "0.0"
    },
    {
      "incidenceId": "215349",
      "sourceId": "1",
      "incidenceType": "Vialidad invernal tramos",
      "autonomousRegion": "Euskadi",
      "province": "Alava-Araba",
      "carRegistration": "VI",
      "cause": "Desconocida",
      "startDate": "2023-12-29T06:55:17",
      "road": "AP-1",
      "pkStart": "100.0",
      "pkEnd": "123.0",
      "direction": "MADRID",
      "latitude": "0.0",
      "longitude": "0.0"
    },
    {
      "incidenceId": "215348",
      "sourceId": "1",
      "incidenceType": "Vialidad invernal tramos",
      "autonomousRegion": "Euskadi",
      "province": "Alava-Araba",
      "carRegistration": "VI",
      "cause": "Desconocida",
      "startDate": "2023-12-29T06:55:17",
      "road": "AP-1",
      "pkStart": "77.3",
      "pkEnd": "83.3",
      "direction": "EIBAR",
      "latitude": "0.0",
      "longitude": "0.0"
    },
    {
      "incidenceId": "215347",
      "sourceId": "1",
      "incidenceType": "Vialidad invernal tramos",
      "autonomousRegion": "Euskadi",
      "province": "Alava-Araba",
      "carRegistration": "VI",
      "cause": "Desconocida",
      "startDate": "2023-12-29T06:55:17",
      "road": "N-622",
      "pkStart": "4.0",
      "pkEnd": "23.0",
      "direction": "NO DISPONIBLE",
      "latitude": "0.0",
      "longitude": "0.0"
    },
    {
      "incidenceId": "215346",
      "sourceId": "1",
      "incidenceType": "Vialidad invernal tramos",
      "autonomousRegion": "Euskadi",
      "province": "Gipuzkoa",
      "carRegistration": "SS",
      "cause": "Desconocida",
      "startDate": "2023-12-29T06:55:17",
      "road": "A-8",
      "pkStart": "1.0",
      "pkEnd": "2.0",
      "direction": "NO DISPONIBLE",
      "latitude": "0.0",
      "longitude": "0.0"
    },
    {
      "incidenceId": "215345",
      "sourceId": "1",
      "incidenceType": "Vialidad invernal tramos",
      "autonomousRegion": "Euskadi",
      "province": "Gipuzkoa",
      "carRegistration": "SS",
      "cause": "Desconocida",
      "startDate": "2023-12-29T06:55:17",
      "road": "A-8",
      "pkStart": "2.0",
      "pkEnd": "1.0",
      "direction": "NO DISPONIBLE",
      "latitude": "0.0",
      "longitude": "0.0"
    },
    {
      "incidenceId": "215344",
      "sourceId": "1",
      "incidenceType": "Vialidad invernal tramos",
      "autonomousRegion": "Euskadi",
      "province": "Bizkaia",
      "carRegistration": "BI",
      "cause": "Desconocida",
      "startDate": "2023-12-29T06:55:17",
      "road": "A-8",
      "pkStart": "75.0",
      "pkEnd": "93.0",
      "direction": "NO DISPONIBLE",
      "latitude": "0.0",
      "longitude": "0.0"
    },
    {
      "incidenceId": "215343",
      "sourceId": "1",
      "incidenceType": "Vialidad invernal tramos",
      "autonomousRegion": "Euskadi",
      "province": "Gipuzkoa",
      "carRegistration": "SS",
      "cause": "Desconocida",
      "startDate": "2023-12-29T06:55:17",
      "road": "A-15",
      "pkStart": "139.8",
      "pkEnd": "152.0",
      "direction": "NO DISPONIBLE",
      "latitude": "0.0",
      "longitude": "0.0"
    }
  ]
}